Drone Charger,Drone Camera,Drone Battery,Drone Accessories,Jumping Drone,Flying Drone,,,,,,,,,,,,,,,,,
Drone Camera,Drone Charger,Drone Battery,Drone Accessories,Jumping Drone,Flying Drone,,,,,,,,,,,,,,,,,
Drone Battery,Drone Charger,Drone Camera,Drone Accessories,Jumping Drone,Flying Drone,,,,,,,,,,,,,,,,,
Drone Accessories,Drone Charger,Drone Camera,Drone Battery,Jumping Drone,Flying Drone,,,,,,,,,,,,,,,,,
Backpack,Ipad Case,Iphone Case,VR Case,Carry Bag,,,,,,,,,,,,,,,,,,
Jumping Drone,Drone Charger,Drone Camera,Drone Battery,Drone Accessories,Flying Drone,,,,,,,,,,,,,,,,,
GAMING CAPTURE CARD,Gaming Speaker,Gaming Mic,Gaming Controller Shifter,Gaming Controller Wheel,Gaming Chair,Gaming Headphone,Gaming Controller,Gaming Keyboard,Gaming Headset,Gaming Mouse,,,,,,,,,,,,
MOUSE BUNJEE,Mousepad,Gaming Mouse,,,,,,,,,,,,,,,,,,,,
VR Case,Case,Tablet Case,Ipad Case,Iphone Case,,,,,,,,,,,,,,,,,,
HDMI Cable,Cable,,,,,,,,,,,,,,,,,,,,,
Gaming Speaker,GAMING CAPTURE CARD,Gaming Mic,Gaming Controller Shifter,Gaming Controller Wheel,Gaming Chair,Gaming Headphone,Gaming Controller,Gaming Keyboard,Gaming Headset,Gaming Mouse,,,,,,,,,,,,
Gaming Mic,Gaming Speaker,GAMING CAPTURE CARD,Gaming Controller Shifter,Gaming Controller Wheel,Gaming Chair,Gaming Headphone,Gaming Controller,Gaming Keyboard,Gaming Headset,Gaming Mouse,,,,,,,,,,,,
Gaming Controller Shifter,Gaming Speaker,Gaming Mic,GAMING CAPTURE CARD,Gaming Controller Wheel,Gaming Chair,Gaming Headphone,Gaming Controller,Gaming Keyboard,Gaming Headset,Gaming Mouse,,,,,,,,,,,,
Gaming Controller Wheel,Gaming Speaker,Gaming Mic,Gaming Controller Shifter,GAMING CAPTURE CARD,Gaming Chair,Gaming Headphone,Gaming Controller,Gaming Keyboard,Gaming Headset,Gaming Mouse,,,,,,,,,,,,
Gaming Chair,Gaming Speaker,Gaming Mic,Gaming Controller Shifter,Gaming Controller Wheel,GAMING CAPTURE CARD,Gaming Headphone,Gaming Controller,Gaming Keyboard,Gaming Headset,Gaming Mouse,,,,,,,,,,,,
Power Supply,Power Bank,Cable,,,,,,,,,,,,,,,,,,,,
Computer Casing,Mousepad,Keyboard Rest,Case,Laptop Sleeve,Keyboard Protector,Headphone Stand,Headphone,Dj Headphone,Monitor,Gaming Speaker,Gaming Mic,Gaming Controller Shifter,Gaming Controller Wheel,GAMING CAPTURE CARD,Gaming Headphone,Gaming Controller,Gaming Keyboard,Gaming Headset,Gaming Mouse,Gaming Chair,Flash Drive,Speaker
Mousepad,Gaming Mouse,MOUSE BUNJEE,,,,,,,,,,,,,,,,,,,,
Laptop Accessories,Laptop Sleeve,Keyboard Rest,Keyboard Protector,Headphone Stand,Headphone,Dj Headphone,Monitor,Gaming Speaker,Gaming Mic,Gaming Controller Shifter,Gaming Controller Wheel,GAMING CAPTURE CARD,Gaming Headphone,Gaming Controller,Gaming Keyboard,Gaming Headset,Gaming Mouse,Gaming Chair,Flash Drive,,,
Gaming Headphone,GAMING CAPTURE CARD,Gaming Mic,Gaming Controller Shifter,Gaming Controller Wheel,Gaming Chair,Gaming Headphone,Gaming Controller,Gaming Keyboard,Gaming Speaker,Gaming Mouse,,,,,,,,,,,,
Gaming Controller,GAMING CAPTURE CARD,Gaming Mic,Gaming Controller Shifter,Gaming Controller Wheel,Gaming Chair,Gaming Headphone,Gaming Speaker,Gaming Keyboard,Gaming Headset,Gaming Mouse,,,,,,,,,,,,
Keyboard Rest,Keyboard Protector,Gaming Keyboard,,,,,,,,,,,,,,,,,,,,
Flash Drive,Micro Sd Card,,,,,,,,,,,,,,,,,,,,,
Micro Sd Card,Flash Drive,,,,,,,,,,,,,,,,,,,,,
Mobile/Tab Charger,Charger,Mobile Charger,Wireless Charger,Wall Charger,Power Bank,,,,,,,,,,,,,,,,,
Microphone,Mobile Phone,,,,,,,,,,,,,,,,,,,,,
Case,Tablet Case,Ipad Case,Iphone Case,Computer Casing,,,,,,,,,,,,,,,,,,
Carry Bag,Backpack,Ipad Case,Iphone Case,VR Case,,,,,,,,,,,,,,,,,,
Laptop Sleeve,Laptop Accessories,Keyboard Rest,Keyboard Protector,Headphone Stand,Headphone,Dj Headphone,Monitor,Gaming Speaker,Gaming Mic,Gaming Controller Shifter,Gaming Controller Wheel,GAMING CAPTURE CARD,Gaming Headphone,Gaming Controller,Gaming Keyboard,Gaming Headset,Gaming Mouse,Gaming Chair,Flash Drive,Sleeve,,
Selfie Stick,Mobile Phone,,,,,,,,,,,,,,,,,,,,,
Carry Case,Backpack,Ipad Case,Iphone Case,VR Case,Tablet Case,Carry Bag,,,,,,,,,,,,,,,,
Stylus Pen,Tablet Case,Case,Ipad Case,Iphone Case,,,,,,,,,,,,,,,,,,
Wireless Charger,Charger,Mobile Charger,Mobile/Tab Charger,Wall Charger,Power Bank,,,,,,,,,,,,,,,,,
Tablet Case,Case,Ipad Case,Iphone Case,Computer Casing,Stylus Pen,,,,,,,,,,,,,,,,,
Keyboard Protector,Keyboard Rest,Gaming Keyboard,,,,,,,,,,,,,,,,,,,,
Ipad Case,Case,Tablet Case,Iphone Case,Computer Casing,,,,,,,,,,,,,,,,,,
Iphone Case,Case,Ipad Case,Tablet Case,Computer Casing,,,,,,,,,,,,,,,,,,
Headphone Stand,Headphone,Dj Headphone,Gaming Headphone,Dj Headphone,Stand,,,,,,,,,,,,,,,,,
Stand,Headphone Stand,,,,,,,,,,,,,,,,,,,,,
Sleeve,Laptop Sleeve,,,,,,,,,,,,,,,,,,,,,
Headphone,Headphone Stand,Dj Headphone,Gaming Headphone,Dj Headphone,Stand,,,,,,,,,,,,,,,,,
Dj Headphone,Headphone,Headphone Stand,Gaming Headphone,Dj Headphone,Stand,,,,,,,,,,,,,,,,,
Dj Control,Speaker,Bluetooth Speaker,Dj Headphone,,,,,,,,,,,,,,,,,,,
Webcam,Drone Camera,,,,,,,,,,,,,,,,,,,,,
Speaker,Bluetooth Speaker,,,,,,,,,,,,,,,,,,,,,
Bluetooth Speaker,Speaker,,,,,,,,,,,,,,,,,,,,,
Flower Pot,Speaker,Bluetooth Speaker,,,,,,,,,,,,,,,,,,,,
Flying Drone,Drone Charger,Drone Camera,Drone Battery,Drone Accessories,Jumping Drone,,,,,,,,,,,,,,,,,
Mobile Phone,Iphone Case,Headphone,Charger,Mobile Charger,Wireless Charger,Wall Charger,Power Bank,Mobile/Tab Charger,Tempered Glass,Screen Protector,Microphone,,,,,,,,,,,
Monitor,GAMING CAPTURE CARD,Gaming Mic,Gaming Controller Shifter,Gaming Controller Wheel,Gaming Chair,Gaming Headphone,Gaming Controller,Gaming Keyboard,Gaming Headset,Gaming Mouse,Headphone,Headphone Stand,Gaming Headphone,Dj Headphone,Gaming Speaker,,,,,,,
Gaming Keyboard,GAMING CAPTURE CARD,Gaming Mic,Gaming Controller Shifter,Gaming Controller Wheel,Gaming Chair,Gaming Headphone,Gaming Controller,Gaming Headphone,Gaming Speaker,Gaming Mouse,,,,,,,,,,,,
Gaming Headset,GAMING CAPTURE CARD,Gaming Mic,Gaming Controller Shifter,Gaming Controller Wheel,Gaming Chair,Gaming Keyboard,Gaming Controller,Gaming Headphone,Gaming Speaker,Gaming Mouse,,,,,,,,,,,,
Gaming Mouse,GAMING CAPTURE CARD,Gaming Mic,Gaming Controller Shifter,Gaming Controller Wheel,Gaming Chair,Gaming Keyboard,Gaming Controller,Gaming Headphone,Gaming Speaker,Gaming Headset,,,,,,,,,,,,
Charger,Charger,Mobile Charger,Wireless Charger,Wall Charger,Power Bank,Mobile/Tab Charger,,,,,,,,,,,,,,,,
Tempered Glass,Screen Protector,,,,,,,,,,,,,,,,,,,,,
Screen Protector,Tempered Glass,,,,,,,,,,,,,,,,,,,,,
Power Bank,Power Supply,Charger,Mobile Charger,Mobile/Tab Charger,Wall Charger,Wireless Charger,,,,,,,,,,,,,,,,
Mobile Charger,Charger,Power Bank,Mobile/Tab Charger,Wall Charger,Wireless Charger,,,,,,,,,,,,,,,,,
Car Charger,Charger,Power Bank,,,,,,,,,,,,,,,,,,,,
Cable,HDMI Cable,,,,,,,,,,,,,,,,,,,,,
Wall Charger,Charger,Mobile Charger,Mobile/Tab Charger,Wireless Charger,,,,,,,,,,,,,,,,,,
