description,hours,start,end,USD
issues (1GB),1,2017-06-23 09:14:25 +0000,2017-06-23 10:30:19 +0000,0.01
issues (1GB),2,2017-06-23 10:31:39 +0000,2017-06-23 12:08:51 +0000,0.03
efffactor-prod (2GB),1,2017-06-27 05:12:19 +0000,2017-06-27 05:17:56 +0000,0.03
fafadiatech.com (512MB),720,2017-06-01 00:00:00 +0000,2017-06-30 23:59:59 +0000,5
sms-portal (512MB),720,2017-06-01 00:00:00 +0000,2017-06-30 23:59:59 +0000,5
nagios.fafadiatech.com (512MB),720,2017-06-01 00:00:00 +0000,2017-06-30 23:59:59 +0000,5
YMHTDryRun (512MB),720,2017-06-01 00:00:00 +0000,2017-06-30 23:59:59 +0000,5
tasr-development (2GB),720,2017-06-01 00:00:00 +0000,2017-06-30 23:59:59 +0000,20
zeus-dev (1GB),720,2017-06-01 00:00:00 +0000,2017-06-30 23:59:59 +0000,10
loanxpress (1GB),277,2017-06-01 00:00:00 +0000,2017-06-12 13:33:31 +0000,4.12
loanxpress (2GB),442,2017-06-12 13:33:31 +0000,2017-06-30 23:59:59 +0000,13.15
yellowslice (512MB),720,2017-06-01 00:00:00 +0000,2017-06-30 23:59:59 +0000,5
midas (512MB),720,2017-06-01 00:00:00 +0000,2017-06-30 23:59:59 +0000,5
newspost (4GB),720,2017-06-01 00:00:00 +0000,2017-06-30 23:59:59 +0000,40
xpertconnect (4GB),720,2017-06-01 00:00:00 +0000,2017-06-30 23:59:59 +0000,40
ICICIPruTaxPlus (2GB),720,2017-06-01 00:00:00 +0000,2017-06-30 23:59:59 +0000,20
bhagwaanji (512MB),720,2017-06-01 00:00:00 +0000,2017-06-30 23:59:59 +0000,5
SR-Rooms (512MB),720,2017-06-01 00:00:00 +0000,2017-06-30 23:59:59 +0000,5
sentry-server (1GB),720,2017-06-01 00:00:00 +0000,2017-06-30 23:59:59 +0000,10
polymath-wordpress (512MB),720,2017-06-01 00:00:00 +0000,2017-06-30 23:59:59 +0000,5
jenkins-mothership (2GB),720,2017-06-01 00:00:00 +0000,2017-06-30 23:59:59 +0000,20
odoo-fafadiatech (2GB),720,2017-06-01 00:00:00 +0000,2017-06-30 23:59:59 +0000,20
practiceagile (1GB),720,2017-06-01 00:00:00 +0000,2017-06-30 23:59:59 +0000,10
newzpost-thumbor (1GB),720,2017-06-01 00:00:00 +0000,2017-06-30 23:59:59 +0000,10
Odoo-2 (4GB),720,2017-06-01 00:00:00 +0000,2017-06-30 23:59:59 +0000,40
tasr-eula (512MB),720,2017-06-01 00:00:00 +0000,2017-06-30 23:59:59 +0000,5
Seafile-Server (1GB),720,2017-06-01 00:00:00 +0000,2017-06-30 23:59:59 +0000,10
biglife (512MB),720,2017-06-01 00:00:00 +0000,2017-06-30 23:59:59 +0000,5
ada (512MB),720,2017-06-01 00:00:00 +0000,2017-06-30 23:59:59 +0000,5
efffactor-production (2GB),91,2017-06-27 05:17:39 +0000,2017-06-30 23:59:59 +0000,2.71
New-Beep-Image (nyc3) - 3.02 GB Droplet Snapshot,720,2017-06-01 00:00:00 +0000,2017-06-30 23:59:59 +0000,0.15
SuperSales-Image (nyc3) - 2.79 GB Droplet Snapshot,720,2017-06-01 00:00:00 +0000,2017-06-30 23:59:59 +0000,0.14
,,,Total,330.34
