description,hours,start,end,USD
jenkins-mothership (2GB),247,2017-07-01 00:00:00 +0000,2017-07-11 07:25:36 +0000,7.35
Odoo-2 (4GB),178,2017-07-01 00:00:00 +0000,2017-07-08 09:55:28 +0000,10.59
tasr-eula (512MB),80,2017-07-01 00:00:00 +0000,2017-07-04 07:58:39 +0000,0.6
tasr-training (512MB),1,2017-07-13 07:24:08 +0000,2017-07-13 08:23:18 +0000,0.01
fafadiatech.com (512MB),744,2017-07-01 00:00:00 +0000,2017-07-31 23:59:59 +0000,5
sms-portal (512MB),744,2017-07-01 00:00:00 +0000,2017-07-31 23:59:59 +0000,5
nagios.fafadiatech.com (512MB),744,2017-07-01 00:00:00 +0000,2017-07-31 23:59:59 +0000,5
YMHTDryRun (512MB),744,2017-07-01 00:00:00 +0000,2017-07-31 23:59:59 +0000,5
tasr-development (2GB),744,2017-07-01 00:00:00 +0000,2017-07-31 23:59:59 +0000,20
zeus-dev (1GB),744,2017-07-01 00:00:00 +0000,2017-07-31 23:59:59 +0000,10
loanxpress (2GB),744,2017-07-01 00:00:00 +0000,2017-07-31 23:59:59 +0000,20
yellowslice (512MB),744,2017-07-01 00:00:00 +0000,2017-07-31 23:59:59 +0000,5
midas (512MB),744,2017-07-01 00:00:00 +0000,2017-07-31 23:59:59 +0000,5
newspost (4GB),744,2017-07-01 00:00:00 +0000,2017-07-31 23:59:59 +0000,40
xpertconnect (4GB),744,2017-07-01 00:00:00 +0000,2017-07-31 23:59:59 +0000,40
ICICIPruTaxPlus (2GB),744,2017-07-01 00:00:00 +0000,2017-07-31 23:59:59 +0000,20
bhagwaanji (512MB),744,2017-07-01 00:00:00 +0000,2017-07-31 23:59:59 +0000,5
SR-Rooms (512MB),744,2017-07-01 00:00:00 +0000,2017-07-31 23:59:59 +0000,5
sentry-server (1GB),744,2017-07-01 00:00:00 +0000,2017-07-31 23:59:59 +0000,10
polymath-wordpress (512MB),744,2017-07-01 00:00:00 +0000,2017-07-31 23:59:59 +0000,5
odoo-fafadiatech (2GB),744,2017-07-01 00:00:00 +0000,2017-07-31 23:59:59 +0000,20
fafadia-magento2-mothership (1GB),744,2017-07-01 00:00:00 +0000,2017-07-31 23:59:59 +0000,10
newzpost-thumbor (1GB),744,2017-07-01 00:00:00 +0000,2017-07-31 23:59:59 +0000,10
Seafile-Server (1GB),744,2017-07-01 00:00:00 +0000,2017-07-31 23:59:59 +0000,10
biglife (512MB),744,2017-07-01 00:00:00 +0000,2017-07-31 23:59:59 +0000,5
ada (512MB),744,2017-07-01 00:00:00 +0000,2017-07-31 23:59:59 +0000,5
efffactor-production (2GB),744,2017-07-01 00:00:00 +0000,2017-07-31 23:59:59 +0000,20
odoo-prince (4GB),566,2017-07-08 09:58:01 +0000,2017-07-31 23:59:59 +0000,33.69
coloany-dev (512MB),1,2017-07-13 08:07:00 +0000,2017-07-13 08:28:43 +0000,0.01
coloany-dev (1GB),447,2017-07-13 08:28:43 +0000,2017-07-31 23:59:59 +0000,6.65
eprecision-springs (512MB),253,2017-07-21 10:40:23 +0000,2017-07-31 23:59:59 +0000,1.88
New-Beep-Image (nyc3) - 3.02 GB Droplet Snapshot,744,2017-07-01 00:00:00 +0000,2017-07-31 23:59:59 +0000,0.15
SuperSales-Image (nyc3) - 2.79 GB Droplet Snapshot,744,2017-07-01 00:00:00 +0000,2017-07-31 23:59:59 +0000,0.14
yellowslice-1499843509123 (sgp1) 2.32 GB  Droplet Snapshot,5,2017-07-12 07:18:10 +0000,2017-07-12 12:43:33 +0000,0.01
bhagwaanji-1499851679051 (blr1) 3.37 GB  Droplet Snapshot,3,2017-07-12 09:34:40 +0000,2017-07-12 12:45:28 +0000,0.01
tasr-development-1499929216760 (sgp1) 5.13 GB  Droplet Snapshot,449,2017-07-13 07:15:52 +0000,2017-07-31 23:59:59 +0000,0.17
bhagwaanji-1499844375357 (blr1) 3.37 GB  Droplet Snapshot,2,2017-07-12 07:31:28 +0000,2017-07-12 09:28:09 +0000,0.01
ICICIPruTaxPlus-1499843755253 (blr1) 2.92 GB  Droplet Snapshot,5,2017-07-12 07:26:18 +0000,2017-07-12 12:44:43 +0000,0.01
practiceagile-1500633378725 (blr1) 4.49 GB  Droplet Snapshot,253,2017-07-21 10:41:59 +0000,2017-07-31 23:59:59 +0000,0.08
,,,Total,346.36
