description,hours,start,end,USD
lintell (512MB),178,2017-11-01 00:00:00 +0000,2017-11-08 09:56:13 +0000,1.32
ada (512MB),178,2017-11-01 00:00:00 +0000,2017-11-08 09:55:50 +0000,1.32
coloany-dev (1GB),31,2017-11-01 00:00:00 +0000,2017-11-02 06:36:10 +0000,0.46
accurate-dms-demo (512MB),560,2017-11-01 00:00:00 +0000,2017-11-24 08:26:39 +0000,4.17
odoo-payroll (1GB),178,2017-11-01 00:00:00 +0000,2017-11-08 09:53:39 +0000,2.65
fafadiatech.com (512MB),720,2017-11-01 00:00:00 +0000,2017-11-30 23:59:59 +0000,5
sms-portal (512MB),720,2017-11-01 00:00:00 +0000,2017-11-30 23:59:59 +0000,5
nagios.fafadiatech.com (512MB),720,2017-11-01 00:00:00 +0000,2017-11-30 23:59:59 +0000,5
YMHTDryRun (512MB),720,2017-11-01 00:00:00 +0000,2017-11-30 23:59:59 +0000,5
tasr-development (2GB),720,2017-11-01 00:00:00 +0000,2017-11-30 23:59:59 +0000,20
zeus-dev (1GB),720,2017-11-01 00:00:00 +0000,2017-11-30 23:59:59 +0000,10
midas (512MB),720,2017-11-01 00:00:00 +0000,2017-11-30 23:59:59 +0000,5
xpertconnect (8GB),720,2017-11-01 00:00:00 +0000,2017-11-30 23:59:59 +0000,80
sentry-server (1GB),720,2017-11-01 00:00:00 +0000,2017-11-30 23:59:59 +0000,10
polymath-wordpress (512MB),720,2017-11-01 00:00:00 +0000,2017-11-30 23:59:59 +0000,5
odoo-fafadiatech (2GB),720,2017-11-01 00:00:00 +0000,2017-11-30 23:59:59 +0000,20
newzpost-thumbor (1GB),720,2017-11-01 00:00:00 +0000,2017-11-30 23:59:59 +0000,10
efffactor-production (2GB),720,2017-11-01 00:00:00 +0000,2017-11-30 23:59:59 +0000,20
odoo-prince (4GB),720,2017-11-01 00:00:00 +0000,2017-11-30 23:59:59 +0000,40
eprecision-springs (512MB),720,2017-11-01 00:00:00 +0000,2017-11-30 23:59:59 +0000,5
dev-kh-eff (1GB),720,2017-11-01 00:00:00 +0000,2017-11-30 23:59:59 +0000,10
lintell-NY (512MB),720,2017-11-01 00:00:00 +0000,2017-11-30 23:59:59 +0000,5
haptik-dev (1GB),720,2017-11-01 00:00:00 +0000,2017-11-30 23:59:59 +0000,10
fairbridge-app (1GB),632,2017-11-03 06:07:32 +0000,2017-11-29 14:21:09 +0000,9.4
fairbridge-app (2GB),34,2017-11-29 14:21:09 +0000,2017-11-30 23:59:59 +0000,1.01
New-Beep-Image (nyc3) - 3.02 GB Droplet Snapshot,720,2017-11-01 00:00:00 +0000,2017-11-30 23:59:59 +0000,0.15
SuperSales-Image (nyc3) - 2.79 GB Droplet Snapshot,720,2017-11-01 00:00:00 +0000,2017-11-30 23:59:59 +0000,0.14
tasr-development-1499929216760 (sgp1) 5.13 GB  Droplet Snapshot,720,2017-11-01 00:00:00 +0000,2017-11-30 23:59:59 +0000,0.26
practiceagile-1500633378725 (blr1) 4.49 GB  Droplet Snapshot,720,2017-11-01 00:00:00 +0000,2017-11-30 23:59:59 +0000,0.22
fafadia-magento2-mothership-10082017 (blr1) 5.69 GB  Droplet Snapshot,720,2017-11-01 00:00:00 +0000,2017-11-30 23:59:59 +0000,0.28
SR-Rooms-10092017 (blr1) 4.26 GB  Droplet Snapshot,720,2017-11-01 00:00:00 +0000,2017-11-30 23:59:59 +0000,0.21
loanxpress-10092017 (sgp1) 4.47 GB  Droplet Snapshot,720,2017-11-01 00:00:00 +0000,2017-11-30 23:59:59 +0000,0.22
newspost-10092017 (blr1) 46.03 GB  Droplet Snapshot,720,2017-11-01 00:00:00 +0000,2017-11-30 23:59:59 +0000,2.3
Seafile-Server-12082017 (blr1) 4.19 GB  Droplet Snapshot,720,2017-11-01 00:00:00 +0000,2017-11-30 23:59:59 +0000,0.21
coloany-dev-1509604354980 (blr1) 1.72 GB  Droplet Snapshot,689,2017-11-02 06:34:23 +0000,2017-11-30 23:59:59 +0000,0.09
odoo-payroll-1510134195831-8-11-2017 (blr1) 4.01 GB  Droplet Snapshot,542,2017-11-08 09:46:42 +0000,2017-11-30 23:59:59 +0000,0.16
,,,Total,294.57
