description,hours,start,end,USD
fafadiatech.com (512MB),744,2018-03-01 00:00:00 +0000,2018-03-31 23:59:59 +0000,5
sms-portal (512MB),744,2018-03-01 00:00:00 +0000,2018-03-31 23:59:59 +0000,5
nagios.fafadiatech.com (512MB),744,2018-03-01 00:00:00 +0000,2018-03-31 23:59:59 +0000,5
YMHTDryRun (512MB),744,2018-03-01 00:00:00 +0000,2018-03-31 23:59:59 +0000,5
zeus-dev (1GB),744,2018-03-01 00:00:00 +0000,2018-03-31 23:59:59 +0000,10
tasr-development (2GB),744,2018-03-01 00:00:00 +0000,2018-03-31 23:59:59 +0000,20
midas (512MB),744,2018-03-01 00:00:00 +0000,2018-03-31 23:59:59 +0000,5
sentry-server (1GB),744,2018-03-01 00:00:00 +0000,2018-03-31 23:59:59 +0000,10
polymath-wordpress (512MB),744,2018-03-01 00:00:00 +0000,2018-03-31 23:59:59 +0000,5
odoo-fafadiatech (2GB),744,2018-03-01 00:00:00 +0000,2018-03-31 23:59:59 +0000,20
newzpost-thumbor (1GB),744,2018-03-01 00:00:00 +0000,2018-03-31 23:59:59 +0000,10
efffactor-production (2GB),744,2018-03-01 00:00:00 +0000,2018-03-31 23:59:59 +0000,20
eprecision-springs (512MB),744,2018-03-01 00:00:00 +0000,2018-03-31 23:59:59 +0000,5
xpertconnect (8GB),744,2018-03-01 00:00:00 +0000,2018-03-31 23:59:59 +0000,80
lintell-NY (512MB),744,2018-03-01 00:00:00 +0000,2018-03-31 23:59:59 +0000,5
haptik-dev (1GB),744,2018-03-01 00:00:00 +0000,2018-03-31 23:59:59 +0000,10
fairbridge-app (2GB),744,2018-03-01 00:00:00 +0000,2018-03-31 23:59:59 +0000,20
New-Dev-Eff (s-1vcpu-3gb),744,2018-03-01 00:00:00 +0000,2018-03-31 23:59:59 +0000,15
dev-kh-eff (s-2vcpu-4gb),744,2018-03-01 00:00:00 +0000,2018-03-31 23:59:59 +0000,20
efffactor-wordpress (s-1vcpu-2gb),277,2018-03-20 10:48:10 +0000,2018-03-31 23:59:59 +0000,4.12
New-Beep-Image (nyc3) - 3.02 GB Droplet Snapshot,744,2018-03-01 00:00:00 +0000,2018-03-31 23:59:59 +0000,0.15
SuperSales-Image (nyc3) - 2.79 GB Droplet Snapshot,744,2018-03-01 00:00:00 +0000,2018-03-31 23:59:59 +0000,0.14
tasr-development-1499929216760 (sgp1) 5.13 GB  Droplet Snapshot,744,2018-03-01 00:00:00 +0000,2018-03-31 23:59:59 +0000,0.26
practiceagile-1500633378725 (blr1) 4.49 GB  Droplet Snapshot,744,2018-03-01 00:00:00 +0000,2018-03-31 23:59:59 +0000,0.22
fafadia-magento2-mothership-10082017 (blr1) 5.69 GB  Droplet Snapshot,744,2018-03-01 00:00:00 +0000,2018-03-31 23:59:59 +0000,0.28
SR-Rooms-10092017 (blr1) 4.26 GB  Droplet Snapshot,744,2018-03-01 00:00:00 +0000,2018-03-31 23:59:59 +0000,0.21
loanxpress-10092017 (sgp1) 4.47 GB  Droplet Snapshot,744,2018-03-01 00:00:00 +0000,2018-03-31 23:59:59 +0000,0.22
newspost-10092017 (blr1) 46.03 GB  Droplet Snapshot,744,2018-03-01 00:00:00 +0000,2018-03-31 23:59:59 +0000,2.3
Seafile-Server-12082017 (blr1) 4.19 GB  Droplet Snapshot,744,2018-03-01 00:00:00 +0000,2018-03-31 23:59:59 +0000,0.21
coloany-dev-1509604354980 (blr1) 1.72 GB  Droplet Snapshot,744,2018-03-01 00:00:00 +0000,2018-03-31 23:59:59 +0000,0.09
odoo-payroll-1510134195831-8-11-2017 (blr1) 4.01 GB  Droplet Snapshot,744,2018-03-01 00:00:00 +0000,2018-03-31 23:59:59 +0000,0.2
odoo-prince-10012018 (blr1) 4.36 GB  Droplet Snapshot,744,2018-03-01 00:00:00 +0000,2018-03-31 23:59:59 +0000,0.22
dev-kh-eff-1515585129418 (blr1) 2.84 GB  Droplet Snapshot,744,2018-03-01 00:00:00 +0000,2018-03-31 23:59:59 +0000,0.14
,,,Total,283.76
