description,hours,start,end,USD
fafadiatech.com (512MB),720,2018-06-01 00:00:00 +0000,2018-06-30 23:59:59 +0000,5
sms-portal (512MB),720,2018-06-01 00:00:00 +0000,2018-06-30 23:59:59 +0000,5
YMHTDryRun (512MB),720,2018-06-01 00:00:00 +0000,2018-06-30 23:59:59 +0000,5
nagios.fafadiatech.com (512MB),720,2018-06-01 00:00:00 +0000,2018-06-30 23:59:59 +0000,5
tasr-development (2GB),720,2018-06-01 00:00:00 +0000,2018-06-30 23:59:59 +0000,20
midas (512MB),720,2018-06-01 00:00:00 +0000,2018-06-30 23:59:59 +0000,5
sentry-server (1GB),720,2018-06-01 00:00:00 +0000,2018-06-30 23:59:59 +0000,10
polymath-wordpress (512MB),720,2018-06-01 00:00:00 +0000,2018-06-30 23:59:59 +0000,5
odoo-fafadiatech (2GB),720,2018-06-01 00:00:00 +0000,2018-06-30 23:59:59 +0000,20
newzpost-thumbor (1GB),720,2018-06-01 00:00:00 +0000,2018-06-30 23:59:59 +0000,10
zeus-dev (1GB),720,2018-06-01 00:00:00 +0000,2018-06-30 23:59:59 +0000,10
eprecision-springs (512MB),720,2018-06-01 00:00:00 +0000,2018-06-30 23:59:59 +0000,5
lintell-NY (512MB),720,2018-06-01 00:00:00 +0000,2018-06-30 23:59:59 +0000,5
fairbridge-app (s-2vcpu-4gb),720,2018-06-01 00:00:00 +0000,2018-06-30 23:59:59 +0000,20
Prince-UAE (s-1vcpu-1gb),720,2018-06-01 00:00:00 +0000,2018-06-30 23:59:59 +0000,5
ft-demos (s-2vcpu-4gb),720,2018-06-01 00:00:00 +0000,2018-06-30 23:59:59 +0000,20
crawl-3 (s-1vcpu-1gb),84,2018-06-27 12:12:48 +0000,2018-06-30 23:59:59 +0000,0.62
FineAI (s-1vcpu-1gb),232,2018-06-21 07:45:45 +0000,2018-06-30 23:59:59 +0000,1.73
crawl-1 (s-1vcpu-1gb),84,2018-06-27 12:12:45 +0000,2018-06-30 23:59:59 +0000,0.62
crawl-2 (s-1vcpu-1gb),84,2018-06-27 12:12:54 +0000,2018-06-30 23:59:59 +0000,0.62
New-Dev-Eff (s-1vcpu-3gb),105,2018-06-01 00:00:00 +0000,2018-06-05 09:22:19 +0000,2.34
efffactor-billing-v4 (s-1vcpu-1gb),105,2018-06-01 00:00:00 +0000,2018-06-05 09:21:18 +0000,0.78
efffactor-wordpress (s-1vcpu-2gb),105,2018-06-01 00:00:00 +0000,2018-06-05 09:21:57 +0000,1.56
efffactor-production (2GB),105,2018-06-01 00:00:00 +0000,2018-06-05 09:25:50 +0000,3.12
crawl-dashboard (s-1vcpu-1gb),84,2018-06-27 12:12:51 +0000,2018-06-30 23:59:59 +0000,0.62
haptik-dev (1GB),488,2018-06-01 00:00:00 +0000,2018-06-21 07:41:06 +0000,7.26
dev-kh-eff (s-2vcpu-4gb),105,2018-06-01 00:00:00 +0000,2018-06-05 09:23:25 +0000,3.12
vooks.fafadiatech.com (s-2vcpu-4gb),720,2018-06-01 00:00:00 +0000,2018-06-30 23:59:59 +0000,20
New-Beep-Image (nyc3) - 3.02 GB Droplet Snapshot,720,2018-06-01 00:00:00 +0000,2018-06-30 23:59:59 +0000,0.15
SuperSales-Image (nyc3) - 2.79 GB Droplet Snapshot,720,2018-06-01 00:00:00 +0000,2018-06-30 23:59:59 +0000,0.14
tasr-development-1499929216760 (sgp1) 5.13 GB  Droplet Snapshot,720,2018-06-01 00:00:00 +0000,2018-06-30 23:59:59 +0000,0.26
practiceagile-1500633378725 (blr1) 4.49 GB  Droplet Snapshot,720,2018-06-01 00:00:00 +0000,2018-06-30 23:59:59 +0000,0.22
fafadia-magento2-mothership-10082017 (blr1) 5.69 GB  Droplet Snapshot,720,2018-06-01 00:00:00 +0000,2018-06-30 23:59:59 +0000,0.28
newspost-10092017 (blr1) 46.03 GB  Droplet Snapshot,720,2018-06-01 00:00:00 +0000,2018-06-30 23:59:59 +0000,2.3
SR-Rooms-10092017 (blr1) 4.26 GB  Droplet Snapshot,720,2018-06-01 00:00:00 +0000,2018-06-30 23:59:59 +0000,0.21
Seafile-Server-12082017 (blr1) 4.19 GB  Droplet Snapshot,720,2018-06-01 00:00:00 +0000,2018-06-30 23:59:59 +0000,0.21
odoo-payroll-1510134195831-8-11-2017 (blr1) 4.01 GB  Droplet Snapshot,720,2018-06-01 00:00:00 +0000,2018-06-30 23:59:59 +0000,0.2
coloany-dev-1509604354980 (blr1) 1.72 GB  Droplet Snapshot,720,2018-06-01 00:00:00 +0000,2018-06-30 23:59:59 +0000,0.09
odoo-prince-10012018 (blr1) 4.36 GB  Droplet Snapshot,720,2018-06-01 00:00:00 +0000,2018-06-30 23:59:59 +0000,0.22
efffactor-billing-v4-1528189841949 (blr1) 2.90 GB  Droplet Snapshot,615,2018-06-05 09:13:57 +0000,2018-06-30 23:59:59 +0000,0.13
New-Dev-Eff-1528190017105 (blr1) 3.72 GB  Droplet Snapshot,615,2018-06-05 09:16:28 +0000,2018-06-30 23:59:59 +0000,0.17
efffactor-production-1528190032738 (blr1) 2.87 GB  Droplet Snapshot,615,2018-06-05 09:16:47 +0000,2018-06-30 23:59:59 +0000,0.13
efffactor-wordpress-1528190009169 (blr1) 3.63 GB  Droplet Snapshot,615,2018-06-05 09:17:27 +0000,2018-06-30 23:59:59 +0000,0.17
haptik-dev-1529566471527 (blr1) 5.23 GB  Droplet Snapshot,232,2018-06-21 07:39:32 +0000,2018-06-30 23:59:59 +0000,0.09
dev-kh-eff-1528190025836 (blr1) 3.77 GB  Droplet Snapshot,615,2018-06-05 09:17:30 +0000,2018-06-30 23:59:59 +0000,0.17
dev-kh-eff-1515585129418 (blr1) 2.84 GB  Droplet Snapshot,105,2018-06-01 00:00:00 +0000,2018-06-05 09:10:24 +0000,0.02
loanxpress-10092017 (sgp1) 4.47 GB  Droplet Snapshot,720,2018-06-01 00:00:00 +0000,2018-06-30 23:59:59 +0000,0.22
,,,Total,202.77
