name,parent_id/id
GAMING KEYBOARD,__export__.product_category_316
GAMING MOUSE,__export__.product_category_317
GAMING HEADSET,__export__.product_category_318
GAMING MOUSE,__export__.product_category_321
GAMING KEYBOARD,__export__.product_category_322
GAMING HEADSET,__export__.product_category_324
GAMING MONITOR,__export__.product_category_325
AMD SERIES,__export__.product_category_390
B SERIES,__export__.product_category_390
H SERIES,__export__.product_category_390
Z270 SERIES,__export__.product_category_390
X299 SERIES,__export__.product_category_390
Z370 KOFFEE LAKE,__export__.product_category_390
1060 VGA CARD,__export__.product_category_391
1070 VGA CARD,__export__.product_category_391
1080 VGA CARD,__export__.product_category_391
1050 VGA CARD,__export__.product_category_391
AMD VGA CARD,__export__.product_category_391
HDD INTERNAL,__export__.product_category_393
HDD EXTERNAL,__export__.product_category_393
HDD,__export__.product_category_394
PULLED HDD,__export__.product_category_393
PULLED HDD,__export__.product_category_395
AMD SERIES,__export__.product_category_399
B SERIES,__export__.product_category_399
H SERIES,__export__.product_category_399
Z SERIES,__export__.product_category_399
X299 SERIES,__export__.product_category_399
Z370 SERIES,__export__.product_category_399
1030 NVIDIA GRAPHIC CARDS,__export__.product_category_400
1050 NVIDIA GRAPHIC CARDS,__export__.product_category_400
1060 NVIDIA GRAPHIC CARDS,__export__.product_category_400
1070 NVIDIA GRAPHIC CARDS,__export__.product_category_400
1080 NVIDIA GRAPHIC CARDS,__export__.product_category_400
AMD GRAPHICS,__export__.product_category_400
CPU FAN,__export__.product_category_401
P5 SERIES,__export__.product_category_402
V SERIES,__export__.product_category_402
X SERIES,__export__.product_category_402
W SERIES,__export__.product_category_402
TOWER 900,__export__.product_category_402
GAMING MOUSE,__export__.product_category_409
GAMING KEYBOARD,__export__.product_category_410
GAMING HEADSET,__export__.product_category_412
GAMING SPEAKERS,__export__.product_category_415
OVERWATCH SERIES,__export__.product_category_409
OVERWATCH SERIES,__export__.product_category_410
OVERWATCH SERIES,__export__.product_category_418
OVERWATCH SERIES,__export__.product_category_412
RAZER D. Va,__export__.product_category_409
RAZER D. Va,__export__.product_category_418
RAZER D. Va,__export__.product_category_412
RAZER SKT T1,__export__.product_category_418
RAZER QUARTZ EDITION,__export__.product_category_410
RAZER QUARTZ EDITION,__export__.product_category_412
RAZER QUARTZ EDITION,__export__.product_category_409
RAZER QUARTZ EDITION,__export__.product_category_418
DESTINY 2,__export__.product_category_409
DESTINY 2,__export__.product_category_410
DESTINY 2,__export__.product_category_418
DESTINY 2,__export__.product_category_412
GUNMETAL EDITION,__export__.product_category_409
GUNMETAL EDITION,__export__.product_category_410
GUNMETAL EDITION,__export__.product_category_412
GUNMETAL EDITION,__export__.product_category_418
MERCURY EDITION,__export__.product_category_409
MERCURY EDITION,__export__.product_category_410
MERCURY EDITION,__export__.product_category_412
NABU X,__export__.product_category_421
NABU 2015,__export__.product_category_421
GAMING LAPTOP,__export__.product_category_423
MOBILE SPEAKERS,__export__.product_category_415
MOBILE HEADSET,__export__.product_category_412
MOUSE+MAT,__export__.product_category_424
HDD,__export__.product_category_395
HDD,__export__.product_category_393
