name,line_ids/location_id/id,line_ids/product_id/id,line_ids/product_qty
Starting Stock for I Store Sharjah City Centre,__export__.stock_location_23,__export__.product_template_2628,5
,__export__.stock_location_23,__export__.product_template_2237,1
,__export__.stock_location_23,__export__.product_template_2629,2
,__export__.stock_location_23,__export__.product_template_2630,1
,__export__.stock_location_23,__export__.product_template_2589,1
