"id","code","name"
"__export__.account_account_1","0","Your Company"
"__export__.account_account_2","1","Balance Sheet"
"__export__.account_account_3","10","Fixed Assets"
"__export__.account_account_4","100000","Furniture & Fixtures"
"__export__.account_account_90","102000","Office Equipment"
"__export__.account_account_89","101000","Acc. Dep. on Vehicles"
"__export__.account_account_98","106000 ","Acc. Dep. on Furniture & Fixtures"
"__export__.account_account_99","107000  ","Acc. Dep. on Office Equipments"
"__export__.account_account_100","108000  ","Acc. Dep. on Rental Equipments"
"__export__.account_account_91","103000","Office Equipment"
"__export__.account_account_92","104000","Vehicles"
"__export__.account_account_93","105000","Rental Equipments & Accessories"
"__export__.account_account_5","11","Net Current Assets"
"__export__.account_account_6","110","Current Assets"
"__export__.account_account_7","110100","Stock"
"__export__.account_account_27","1107","Deposits"
"__export__.account_account_96","110701 ","Fixed Deposit"
"__export__.account_account_97","110702","Other Deposits"
"__export__.account_account_28","1105","Loans & Advances"
"__export__.account_account_34","110501","Employee Advances"
"__export__.account_account_35","110502","Other Advances"
"__export__.account_account_29","110700","Prepayments"
"__export__.account_account_8","1102","Debtors"
"__export__.account_account_37","110201","Trade Debtors"
"__export__.account_account_38","110202","Other Debtors"
"__export__.account_account_33","110800 ","Rebates receivable on Purchase"
"__export__.account_account_9","110300","Tax Paid"
"__export__.account_account_10","1104","Bank Current Account"
"__export__.account_account_25","110401","Cash"
"__export__.account_account_26","110402","Bank"
"__export__.account_account_11","110600","Opening Income Account"
"__export__.account_account_12","12","Current Liabilities"
"__export__.account_account_13","120","Creditors"
"__export__.account_account_39","120001","Trade Creditors"
"__export__.account_account_40","120002 ","Other Creditors"
"__export__.account_account_86","125","Loans &Borrowings"
"__export__.account_account_84","125100","Trade Loans"
"__export__.account_account_87","125200","Secured Loans"
"__export__.account_account_14","121000","Tax Received"
"__export__.account_account_36","122000 ","Provisions"
"__export__.account_account_55","124 ","Capital Account"
"__export__.account_account_15","124200","Reserve & Surplus"
"__export__.account_account_41","124210","Legal Reserve"
"__export__.account_account_42","124220","Retained Earnings"
"__export__.account_account_63","124300 ","Share Capital"
"__export__.account_account_64","124310  ","Jyoti Share Capital A/C"
"__export__.account_account_65","124320  ","Marwan Share Capital A/C"
"__export__.account_account_66","124330  ","Mohamed Rashid Modh Aladouli Share Capital A/C"
"__export__.account_account_67","124340   ","Punit Share Capital A/C"
"__export__.account_account_58","124100 ","Directors Current A/C"
"__export__.account_account_59","124110 ","Punit's A/C"
"__export__.account_account_95","124150","Punit's Current A/C"
"__export__.account_account_69","124130","Punit's Loan A/C"
"__export__.account_account_94","124140","Loan & Advances to Director"
"__export__.account_account_60","124120 ","Investments"
"__export__.account_account_16","123000","Opening Expense Account"
"__export__.account_account_17","2","Profit and Loss"
"__export__.account_account_18","20","Revenue"
"__export__.account_account_19","200000","Product Sales"
"__export__.account_account_81","23 ","Other income"
"__export__.account_account_80","231100","Rebate "
"__export__.account_account_82","231200","Rental Income"
"__export__.account_account_83","231300","Other income"
"__export__.account_account_20","21","Cost of Sales"
"__export__.account_account_21","210000","Cost of Goods Sold"
"__export__.account_account_22","22","Overheads"
"__export__.account_account_23","220000","Direct Expenses"
"__export__.account_account_24","221","Indirect Expenses "
"__export__.account_account_70","221100","Salary & Benefits"
"__export__.account_account_71","221200","General Expenses"
"__export__.account_account_72","221300","Depreciation Expenses"
"__export__.account_account_73","221400","Finance Charges"
"__export__.account_account_74","221500","Utility Expenses"
"__export__.account_account_75","221600","PAV Expenses"
"__export__.account_account_76","221700","Rent Expenses"
"__export__.account_account_77","221800","Selling Expenses"
"__export__.account_account_78","221900","Office & Admin Expenses"
"__export__.account_account_79","221101","Vehicle Expenses"
